fm_stm32f4_led.c:30:6:FM_Led_Init	32	static
fm_stm32f4_led.c:48:6:FM_Led_Off	16	static
fm_stm32f4_led.c:56:6:FM_Led_On	16	static
fm_stm32f4_led.c:65:6:FM_Led_Toggle	24	static
fm_stm32f4_led.c:74:8:Switch_Led	40	static
